włoski=11.393483709273184
niemiecki=8.578445165945165
angielski=9.311004784688995
hiszpański=8.34304289091523
francuski=9.015079365079366


włoski=45.365743905217585
niemiecki=31.743778443778453
angielski=22.882490316700835
hiszpański=24.767987627030177
francuski=29.359595959595968
